^C:\USERS\AVERY\DESKTOP\SCHOOL\WCC SEMESTER 3\DATA STRUCT\ASSIGN 3 MAZE\DEBUG\ALI_MAZE.V0.OBJ
C:\USERS\AVERY\DESKTOP\SCHOOL\WCC SEMESTER 3\DATA STRUCT\ASSIGN 3 MAZE\DEBUG\ASSIGN 3 MAZE.ILK
C:\USERS\AVERY\DESKTOP\SCHOOL\WCC SEMESTER 3\DATA STRUCT\ASSIGN 3 MAZE\DEBUG\ASSIGN 3 MAZE.EXE
C:\USERS\AVERY\DESKTOP\SCHOOL\WCC SEMESTER 3\DATA STRUCT\ASSIGN 3 MAZE\DEBUG\ASSIGN 3 MAZE.PDB
